{
    "/js/app.js": "/js/app.js",
    "/css/app.css": "/css/app.css",
    "/js/app.e08f1d194d56c8f5de29.hot-update.js": "/js/app.e08f1d194d56c8f5de29.hot-update.js",
    "/js/app.2162701270f741eb5baf.hot-update.js": "/js/app.2162701270f741eb5baf.hot-update.js",
    "/js/app.53ada8c605a7923efd5b.hot-update.js": "/js/app.53ada8c605a7923efd5b.hot-update.js",
    "/js/app.24c47ce636d102d1a750.hot-update.js": "/js/app.24c47ce636d102d1a750.hot-update.js",
    "/js/app.29a4bed8a827196f075b.hot-update.js": "/js/app.29a4bed8a827196f075b.hot-update.js",
    "/js/app.f04ace7eb09d94b5eba3.hot-update.js": "/js/app.f04ace7eb09d94b5eba3.hot-update.js",
    "/js/app.79d0777fc36042450220.hot-update.js": "/js/app.79d0777fc36042450220.hot-update.js",
    "/js/app.13e7e617c65fa7e253b7.hot-update.js": "/js/app.13e7e617c65fa7e253b7.hot-update.js",
    "/js/app.54b749b2ff38dbb98a8e.hot-update.js": "/js/app.54b749b2ff38dbb98a8e.hot-update.js"
}
